<svg width="302" height="194" viewBox="0 0 302 194" fill="none" xmlns="http://www.w3.org/2000/svg">
<path d="M296.742 115.838L146.862 29.5175C135.762 23.1175 122.082 23.1275 110.992 29.5375L8.79245 88.5475L0.00244141 85.5275V96.7975C0.00244141 96.7975 0.00244141 96.7975 0.00244141 96.8075C0.00244141 98.6575 0.922451 100.508 2.76245 101.558L154.602 188.998C165.702 195.388 179.372 195.388 190.472 188.978L298.712 126.488C300.382 125.518 301.282 123.897 301.432 122.217V122.168C301.452 121.878 301.452 121.598 301.432 121.308L301.462 110.508L296.752 115.828L296.742 115.838Z" fill="#E2E8ED"/>
<path d="M2.7525 90.2975L154.592 177.738C165.693 184.128 179.362 184.127 190.462 177.717L298.703 115.227C302.373 113.107 302.373 107.807 298.703 105.697L146.863 18.2575C135.763 11.8575 122.082 11.8675 110.992 18.2775L2.7525 80.7775C-0.9175 82.8975 -0.9175 88.1975 2.7525 90.3075V90.2975Z" fill="#FCFCFC"/>
<path d="M293.773 111.877C293.513 112.457 293.073 112.957 292.453 113.317L289.113 115.247L188.083 173.587C183.343 176.307 177.973 177.747 172.513 177.747C167.053 177.747 161.693 176.307 156.973 173.607L9.37254 88.6075C7.01254 87.2375 7.01254 83.8175 9.37254 82.4475L113.363 22.3975C116.153 20.7875 119.183 19.6275 122.333 18.9575C124.493 18.4775 126.713 18.2375 128.943 18.2375C129.923 18.2375 130.893 18.2875 131.853 18.3875C136.283 18.7775 140.593 20.1475 144.463 22.3875L196.883 52.5575L198.423 53.4475L208.673 59.3475L227.773 70.3475L232.843 73.2575L238.083 76.2675L250.663 83.5275L252.203 84.4175L262.283 90.2175L281.483 101.267L292.473 107.597C294.043 108.487 294.493 110.387 293.793 111.857L293.773 111.877Z" fill="#95DBFB"/>
<g style="mix-blend-mode:multiply" opacity="0.15">
<path d="M236.383 112.778C236.383 112.608 236.373 112.447 236.363 112.297C236.343 111.937 236.223 111.577 235.983 111.308C235.893 111.198 235.803 111.107 235.713 111.017C235.693 110.997 235.683 110.988 235.663 110.968C235.553 110.868 235.453 110.777 235.373 110.707C235.273 110.618 235.193 110.538 235.183 110.498C234.923 107.488 234.353 105.187 233.903 104.077C233.473 103.027 232.933 101.897 232.303 100.727C231.643 99.2475 230.983 98.1975 230.863 98.2075C230.863 98.2075 230.863 98.2175 230.863 98.2275C229.513 96.0675 227.903 93.8475 226.093 91.7775C224.613 90.0875 222.983 88.5075 221.223 87.1675L197.673 67.7975C197.583 67.6875 196.583 66.6675 195.023 65.1075C195.803 64.2475 196.513 63.3675 196.823 62.8375C197.723 61.3075 198.193 57.5175 197.193 56.6975C196.723 56.3075 192.913 59.8075 192.303 60.6075C192.113 60.8575 191.993 61.3875 191.923 62.0475C185.403 55.6575 175.143 45.9275 170.853 43.4475L118.353 13.1475C115.693 11.6175 112.423 11.6175 109.773 13.1475L77.7126 31.6575C77.3026 31.8975 76.9026 32.1575 76.5126 32.4275C76.1526 32.6775 75.8026 32.9575 75.4526 33.2375C74.3726 34.1175 73.3926 35.0975 72.5526 36.2175L62.7526 49.2075C61.3726 50.0075 60.5226 51.4875 60.1426 53.0375C58.4926 52.2875 56.4726 61.1975 57.0326 63.9675C57.0826 64.2175 57.2126 64.4275 57.3826 64.5975L56.6826 65.6475C56.2426 66.2475 55.9726 66.9475 55.9026 67.6875C55.8826 67.8875 55.8626 68.1175 55.8526 68.3775C55.7026 70.6875 55.6626 75.1975 55.6626 79.4375C55.6626 82.2575 55.6826 84.9675 55.6926 86.8175C55.7126 88.6675 56.4726 90.4375 57.8826 91.6275C58.5626 92.2075 59.1426 92.6175 59.2926 92.7175C59.2926 92.7475 59.3126 92.7875 59.3226 92.8175L63.2626 90.5675C64.3826 97.2075 68.9926 104.358 74.5426 107.558C77.9626 109.538 81.0326 109.587 83.1626 108.097C83.0326 108.187 82.9126 108.287 82.7826 108.357L88.1926 105.207C88.0626 106.917 87.9026 108.587 87.6826 109.287L143.373 141.517V141.537H143.393L143.443 141.558V141.498L146.173 139.828C147.673 146.018 152.013 152.377 157.143 155.337C160.573 157.317 163.643 157.368 165.773 155.878C165.643 155.968 165.523 156.067 165.383 156.147L171.333 152.688C171.353 153.168 171.363 153.648 171.363 154.138C172.063 154.428 172.773 154.677 173.493 154.907C173.573 154.937 173.653 154.958 173.723 154.988C174.393 155.198 175.073 155.377 175.753 155.537C175.883 155.567 176.023 155.608 176.153 155.638C176.793 155.778 177.453 155.908 178.103 156.008C178.293 156.038 178.473 156.067 178.663 156.087C179.283 156.177 179.903 156.247 180.523 156.298C180.763 156.318 181.003 156.337 181.243 156.347C181.823 156.387 182.413 156.418 183.003 156.428C183.303 156.428 183.593 156.428 183.893 156.428C184.283 156.428 184.673 156.427 185.073 156.407C185.593 156.387 186.113 156.368 186.633 156.328C186.913 156.308 187.183 156.287 187.463 156.267C188.143 156.207 188.813 156.137 189.493 156.048C189.653 156.027 189.823 156.008 189.983 155.988C197.053 155.008 204.243 152.498 210.853 149.258C224.043 142.788 233.783 134.677 236.083 128.237C236.313 127.577 236.383 126.888 236.393 126.188C236.413 123.198 236.473 115.147 236.403 112.797L236.383 112.778ZM77.0726 82.6675C77.2326 82.7975 77.3826 82.9375 77.5326 83.0675C77.3826 82.9275 77.2226 82.7975 77.0726 82.6675ZM78.7226 84.1975C78.5726 84.0375 78.4126 83.8875 78.2626 83.7375C78.4226 83.8875 78.5726 84.0475 78.7226 84.1975ZM84.1126 92.2175C84.1126 92.2175 84.1326 92.2575 84.1326 92.2775C84.0926 92.1975 84.0526 92.1175 84.0226 92.0375C84.0526 92.0975 84.0826 92.1575 84.1126 92.2175ZM83.3026 90.5575C83.2126 90.3875 83.1226 90.2175 83.0326 90.0575C83.1226 90.2275 83.2126 90.3875 83.3026 90.5575ZM82.3026 88.8175C82.2126 88.6775 82.1326 88.5275 82.0426 88.3875C82.1326 88.5275 82.2126 88.6675 82.3026 88.8175ZM79.8026 85.3875C79.6626 85.2275 79.5226 85.0675 79.3826 84.9175C79.4626 85.0075 79.5526 85.0875 79.6226 85.1775C79.6826 85.2475 79.7326 85.3175 79.7926 85.3875H79.8026ZM159.683 130.477C159.843 130.607 159.993 130.748 160.143 130.888C159.993 130.748 159.833 130.617 159.683 130.477ZM161.333 132.008C161.183 131.848 161.023 131.697 160.863 131.537C161.023 131.687 161.173 131.848 161.333 132.008ZM162.243 132.977C162.303 133.047 162.353 133.118 162.413 133.188C162.273 133.028 162.133 132.867 162.003 132.717C162.083 132.807 162.173 132.887 162.243 132.977ZM166.723 140.027C166.723 140.027 166.743 140.067 166.743 140.087C166.703 140.007 166.663 139.927 166.623 139.837C166.653 139.897 166.683 139.967 166.713 140.027H166.723ZM165.913 138.368C165.823 138.198 165.733 138.027 165.643 137.857C165.733 138.027 165.833 138.198 165.913 138.368ZM164.913 136.628C164.823 136.488 164.743 136.338 164.653 136.198C164.743 136.338 164.823 136.478 164.913 136.628ZM83.4526 107.827C83.5826 107.727 83.6926 107.597 83.8126 107.477C83.6926 107.597 83.5826 107.717 83.4526 107.827ZM86.1026 100.907C86.1026 100.497 86.0826 100.067 86.0526 99.6475C86.0826 100.067 86.1026 100.487 86.1026 100.907ZM84.7026 106.427C84.8026 106.277 84.8826 106.108 84.9726 105.938C84.8826 106.098 84.8026 106.277 84.7026 106.427ZM85.5826 104.547C85.6526 104.327 85.7026 104.098 85.7626 103.868C85.7026 104.098 85.6526 104.337 85.5826 104.547ZM85.8726 103.438C85.9226 103.168 85.9626 102.887 85.9926 102.607C85.9526 102.887 85.9226 103.178 85.8726 103.438ZM84.2326 92.5175C84.3826 92.8675 84.5226 93.2275 84.6626 93.5775C84.5326 93.2175 84.3826 92.8675 84.2326 92.5175ZM85.6326 96.7575C85.7226 97.1475 85.7926 97.5375 85.8626 97.9275C85.8026 97.5375 85.7226 97.1475 85.6326 96.7575ZM85.9226 98.3175C85.9726 98.6275 86.0026 98.9475 86.0326 99.2575C86.0026 98.9475 85.9626 98.6375 85.9226 98.3175ZM166.753 154.977C166.863 154.847 166.973 154.698 167.073 154.558C166.963 154.698 166.863 154.847 166.753 154.977ZM168.733 148.698C168.733 148.288 168.713 147.858 168.683 147.438C168.713 147.858 168.733 148.278 168.733 148.698ZM167.333 154.217C167.433 154.067 167.513 153.897 167.603 153.727C167.513 153.887 167.433 154.067 167.333 154.217ZM168.213 152.337C168.283 152.127 168.333 151.897 168.383 151.667C168.323 151.897 168.273 152.127 168.213 152.337ZM166.863 140.298C167.013 140.658 167.163 141.008 167.293 141.368C167.153 141.008 167.013 140.648 166.863 140.298ZM167.883 143.107C168.013 143.548 168.133 143.977 168.233 144.407C168.133 143.977 168.013 143.537 167.883 143.107ZM168.553 146.107C168.603 146.428 168.633 146.738 168.663 147.048C168.633 146.738 168.593 146.417 168.553 146.107Z" fill="black"/>
</g>
<path d="M197.482 48.6075C198.092 47.8075 201.892 44.3074 202.372 44.6974C203.372 45.5174 202.902 49.3075 202.002 50.8375C201.182 52.2475 197.532 56.0975 197.372 55.6375C197.072 54.7675 196.742 49.5775 197.482 48.6075Z" fill="url(#paint0_linear_3_12341)"/>
<path d="M64.7024 65.5975C62.5224 66.8675 63.2024 76.6575 64.4924 80.7975L110.782 54.3075C111.022 50.6175 125.392 36.2175 127.572 34.9575L64.6924 65.6075L64.7024 65.5975Z" fill="#3E4736"/>
<path d="M149.702 111.667C147.462 112.967 147.142 125.897 148.562 129.527L160.112 122.467L186.292 98.0575C186.472 94.2075 207.292 80.3175 209.532 79.0175L149.702 111.677V111.667Z" fill="#3E4736"/>
<path d="M95.6925 76.5374C94.5625 73.9874 93.0225 71.5475 91.2125 69.4875C89.6825 67.7475 87.9725 66.2774 86.1525 65.2274C82.9325 63.3674 80.0125 63.1974 77.9125 64.4174L71.5425 68.1175C73.6525 66.8975 76.5625 67.0675 79.7825 68.9275C81.6025 69.9775 83.3125 71.4475 84.8425 73.1875C86.6525 75.2475 88.1925 77.6875 89.3225 80.2375C90.5925 83.1075 91.3325 86.1274 91.3225 88.9074C91.3125 92.5574 90.0225 95.1275 87.9425 96.3375L94.3125 92.6374C96.3925 91.4274 97.6825 88.8575 97.6925 85.2075C97.6925 82.4275 96.9625 79.4074 95.6925 76.5374Z" fill="#262523"/>
<path d="M79.7824 68.9374C73.3824 65.2474 68.1824 68.2074 68.1624 75.5474C68.1424 82.8974 73.3124 91.8474 79.7024 95.5374C86.1024 99.2274 91.3024 96.2674 91.3224 88.9174C91.3424 81.5774 86.1724 72.6274 79.7824 68.9374Z" fill="#2D2C2B"/>
<path opacity="0.5" d="M79.7724 72.6875C75.1824 70.0375 71.4525 72.1675 71.4325 77.4275C71.4125 82.6975 75.1225 89.1275 79.7125 91.7675C84.3025 94.4175 88.0324 92.2875 88.0524 87.0175C88.0624 81.7475 84.3624 75.3275 79.7724 72.6775V72.6875Z" fill="url(#paint1_linear_3_12341)"/>
<path d="M79.1124 78.6174V79.0574C79.0724 80.7874 80.2524 82.9174 81.7524 83.8174C81.7724 83.8174 81.7824 83.8374 81.8024 83.8474L82.1824 84.0674C82.1824 84.0674 82.1524 84.0474 82.1324 84.0374C80.4324 83.0074 79.0824 80.5874 79.1224 78.6274L79.1124 78.6174Z" fill="#D3D3D3"/>
<path d="M81.7324 76.6475L81.4124 77.3274C80.1324 76.8174 79.1424 77.5175 79.1124 79.0575V78.6175C79.1524 76.8675 80.2824 76.0775 81.7424 76.6475H81.7324Z" fill="#B9B9B9"/>
<path d="M82.1625 84.0575L81.7825 83.8375C83.2625 84.6975 84.4825 84.0275 84.5125 82.3175C84.5325 81.5675 84.3225 80.7475 83.9525 79.9875L84.6225 79.6775C85.0425 80.5475 85.2825 81.4775 85.2625 82.3275C85.2225 84.2675 83.8325 85.0375 82.1525 84.0575H82.1625Z" fill="url(#paint2_linear_3_12341)"/>
<path d="M82.2725 76.9174C82.0925 76.8074 81.9025 76.7175 81.7325 76.6475L81.4125 77.3275C81.5625 77.3875 81.7225 77.4674 81.8925 77.5674C82.7425 78.0774 83.4925 78.9875 83.9725 79.9975L84.6425 79.6875C84.0925 78.5475 83.2425 77.5075 82.2725 76.9275V76.9174Z" fill="#D3D3D3"/>
<path d="M81.8824 77.5675C83.3824 78.4675 84.5624 80.5975 84.5224 82.3275C84.4824 84.0575 83.2424 84.7175 81.7424 83.8175C80.2424 82.9175 79.0624 80.7875 79.1024 79.0575C79.1424 77.3275 80.3824 76.6675 81.8824 77.5675Z" fill="url(#paint3_linear_3_12341)"/>
<path d="M76.6525 72.3374L78.4424 72.3974C78.4424 72.3974 78.9024 72.4574 78.5824 72.5474C77.0724 72.9574 76.0625 74.4374 76.0125 76.7574C75.9225 80.6974 78.6224 85.5574 82.0424 87.6174C84.1124 88.8674 85.9724 88.7974 87.1324 87.6674C87.3624 87.4374 86.9924 88.2074 86.9924 88.2074L86.3024 89.4274C85.0724 91.6174 82.4924 92.0874 79.5524 90.3074C75.5024 87.8674 72.3124 82.1074 72.4124 77.4474C72.4824 74.1274 74.2125 72.2574 76.6525 72.3374Z" fill="url(#paint4_linear_3_12341)"/>
<path d="M79.9324 72.8975C84.2324 75.4875 87.6224 81.5974 87.5124 86.5474C87.4024 91.4974 83.8324 93.4174 79.5424 90.8274C75.2424 88.2374 71.8524 82.1275 71.9624 77.1775C72.0724 72.2275 75.6424 70.3075 79.9324 72.8975ZM79.9224 73.4174C75.8824 70.9774 72.5124 72.7874 72.4124 77.4474C72.3124 82.1074 75.5024 87.8675 79.5524 90.3075C83.5924 92.7475 86.9624 90.9375 87.0624 86.2775C87.1624 81.6175 83.9724 75.8574 79.9224 73.4174Z" fill="#9A9A9A"/>
<path d="M87.0524 86.2775C87.1524 81.6175 83.9624 75.8575 79.9124 73.4174C79.3424 73.0774 78.7924 72.8275 78.2624 72.6475C76.9224 73.1675 76.0524 74.5875 76.0024 76.7475C75.9124 80.6875 78.6124 85.5475 82.0324 87.6075C83.9524 88.7675 85.7024 88.7875 86.8624 87.8875C86.9724 87.3975 87.0324 86.8674 87.0424 86.2874L87.0524 86.2775ZM82.1124 84.0275C80.4124 82.9975 79.0624 80.5775 79.1024 78.6175C79.1424 76.6575 80.5624 75.8974 82.2624 76.9174C83.9624 77.9474 85.3124 80.3675 85.2724 82.3275C85.2324 84.2875 83.8124 85.0475 82.1124 84.0275Z" fill="url(#paint5_linear_3_12341)"/>
<path d="M142.332 108.357L108.222 88.1175L93.6424 88.1975C93.6424 88.1975 93.3824 95.5675 92.8624 97.2875L148.632 129.557V119.747L142.332 108.357Z" fill="url(#paint6_linear_3_12341)"/>
<path d="M178.312 124.337C177.182 121.787 175.642 119.347 173.832 117.287C172.302 115.547 170.592 114.077 168.772 113.027C165.552 111.167 162.632 110.997 160.532 112.217L154.162 115.917C156.272 114.697 159.182 114.867 162.402 116.727C164.222 117.777 165.932 119.247 167.462 120.987C169.272 123.047 170.812 125.487 171.942 128.037C173.212 130.907 173.952 133.927 173.942 136.707C173.932 140.357 172.642 142.928 170.562 144.138L176.932 140.437C179.012 139.227 180.302 136.658 180.312 133.008C180.312 130.228 179.582 127.207 178.312 124.337Z" fill="#262523"/>
<path d="M162.402 116.737C156.002 113.047 150.802 116.007 150.782 123.347C150.762 130.697 155.932 139.647 162.322 143.337C168.722 147.027 173.922 144.067 173.942 136.717C173.962 129.377 168.792 120.427 162.402 116.737Z" fill="#2D2C2B"/>
<path opacity="0.5" d="M162.392 120.487C157.802 117.837 154.072 119.967 154.052 125.227C154.032 130.497 157.742 136.918 162.332 139.568C166.922 142.218 170.652 140.087 170.672 134.818C170.682 129.548 166.982 123.127 162.392 120.477V120.487Z" fill="url(#paint7_linear_3_12341)"/>
<path d="M161.722 126.417V126.857C161.682 128.587 162.862 130.717 164.362 131.617C164.382 131.617 164.392 131.637 164.412 131.647L164.792 131.867C164.792 131.867 164.762 131.847 164.742 131.837C163.042 130.807 161.692 128.387 161.732 126.427L161.722 126.417Z" fill="#D3D3D3"/>
<path d="M164.342 124.448L164.022 125.127C162.742 124.617 161.752 125.317 161.722 126.857V126.417C161.762 124.667 162.892 123.878 164.352 124.448H164.342Z" fill="#B9B9B9"/>
<path d="M164.782 131.857L164.402 131.638C165.882 132.498 167.102 131.827 167.132 130.117C167.152 129.367 166.942 128.547 166.572 127.787L167.242 127.477C167.662 128.347 167.902 129.278 167.882 130.128C167.842 132.068 166.452 132.837 164.772 131.857H164.782Z" fill="url(#paint8_linear_3_12341)"/>
<path d="M164.882 124.717C164.702 124.607 164.512 124.518 164.342 124.448L164.022 125.128C164.172 125.188 164.332 125.267 164.502 125.367C165.352 125.877 166.102 126.787 166.582 127.797L167.252 127.487C166.702 126.347 165.852 125.307 164.882 124.727V124.717Z" fill="#D3D3D3"/>
<path d="M164.492 125.368C165.992 126.268 167.172 128.398 167.132 130.128C167.092 131.858 165.852 132.518 164.352 131.618C162.852 130.718 161.672 128.588 161.712 126.858C161.752 125.128 162.992 124.468 164.492 125.368Z" fill="url(#paint9_linear_3_12341)"/>
<path d="M159.262 120.137L161.052 120.197C161.052 120.197 161.512 120.257 161.192 120.347C159.682 120.757 158.672 122.237 158.622 124.557C158.532 128.497 161.232 133.357 164.652 135.417C166.722 136.667 168.582 136.597 169.742 135.467C169.972 135.247 169.602 136.008 169.602 136.008L168.912 137.227C167.682 139.417 165.102 139.887 162.162 138.107C158.112 135.667 154.922 129.907 155.022 125.247C155.092 121.927 156.822 120.057 159.262 120.137Z" fill="url(#paint10_linear_3_12341)"/>
<path d="M162.542 120.698C166.842 123.288 170.232 129.397 170.122 134.347C170.012 139.297 166.442 141.218 162.152 138.628C157.852 136.038 154.462 129.927 154.572 124.977C154.682 120.027 158.252 118.108 162.542 120.698ZM162.532 121.217C158.492 118.777 155.122 120.587 155.022 125.247C154.922 129.907 158.112 135.667 162.162 138.107C166.202 140.547 169.572 138.738 169.672 134.078C169.772 129.418 166.582 123.657 162.532 121.217Z" fill="#9A9A9A"/>
<path d="M169.672 134.078C169.772 129.418 166.582 123.657 162.532 121.217C161.962 120.877 161.412 120.628 160.882 120.448C159.542 120.968 158.672 122.387 158.622 124.547C158.532 128.487 161.232 133.347 164.652 135.407C166.572 136.567 168.322 136.587 169.482 135.688C169.592 135.198 169.652 134.667 169.662 134.087L169.672 134.078ZM164.732 131.828C163.032 130.798 161.682 128.377 161.722 126.417C161.762 124.457 163.182 123.697 164.882 124.717C166.582 125.747 167.932 128.168 167.892 130.128C167.852 132.088 166.432 132.848 164.732 131.828Z" fill="url(#paint11_linear_3_12341)"/>
<path d="M241.572 100.308C241.552 99.9475 241.432 99.5875 241.192 99.3175C240.822 98.8875 240.392 98.6175 240.382 98.5075C240.122 95.4975 239.552 93.1975 239.102 92.0875C237.612 88.4275 234.812 83.8175 231.273 79.7875C229.793 78.0975 228.162 76.5175 226.402 75.1775L202.852 55.8075C202.442 55.2975 182.482 35.1875 176.032 31.4575L123.532 1.15751C120.872 -0.37249 117.603 -0.37249 114.952 1.15751L82.8925 19.6675C80.8825 20.8275 79.1325 22.3775 77.7425 24.2275L67.9425 37.2175C66.4825 38.0675 65.6025 39.6875 65.2625 41.3475C64.3525 45.6875 64.2025 50.1875 64.2025 50.1875L61.8825 53.6475C61.4425 54.2475 61.1725 54.9475 61.1025 55.6875C60.7925 58.8775 60.8525 69.8775 60.8925 74.8075C60.9125 76.6575 61.6725 78.4275 63.0825 79.6175C63.8625 80.2775 64.5225 80.7275 64.5225 80.7275C65.0225 73.0475 68.0625 59.0875 80.7925 66.4975C80.9325 66.5775 81.0725 66.6675 81.2225 66.7475C87.9425 70.8975 93.2725 80.2175 93.6525 88.1875L148.652 120.008C149.022 112.098 154.753 109.038 161.643 113.018C161.783 113.098 161.932 113.188 162.072 113.278C168.782 117.408 176.432 124.918 176.562 142.138C188.572 147.078 203.392 143.478 216.062 137.268C229.252 130.798 238.992 122.688 241.292 116.248C241.522 115.588 241.592 114.898 241.602 114.198C241.622 110.948 241.692 101.708 241.602 100.318L241.572 100.308ZM172.273 40.0975C175.323 37.8075 177.312 36.0275 178.242 35.1675C184.182 40.2975 195.952 51.7575 198.452 55.1275L172.273 40.0975Z" fill="url(#paint12_linear_3_12341)"/>
<path style="mix-blend-mode:screen" opacity="0.7" d="M180.932 113.167C187.692 114.237 224.892 105.967 234.682 84.1975C233.642 82.6975 232.522 81.1975 231.282 79.7775C229.802 78.0875 228.172 76.5075 226.412 75.1675L202.862 55.7975C202.452 55.2875 182.492 35.1775 176.042 31.4475L123.542 1.1475C120.882 -0.3825 117.612 -0.3825 114.962 1.1475L82.9025 19.6575C82.1025 20.1175 81.3625 20.6575 80.6425 21.2375C80.6425 21.2375 82.4725 20.9575 83.7725 21.7375C92.7425 27.1075 119.852 44.7175 127.052 48.8375C133.272 52.3975 137.892 54.7675 140.582 61.6575C143.652 69.5375 148.132 76.5975 151.222 84.4875L180.952 113.177L180.932 113.167ZM178.242 35.1675C184.182 40.2975 195.952 51.7575 198.452 55.1275L172.272 40.0975C175.322 37.8075 177.312 36.0275 178.242 35.1675Z" fill="url(#paint13_linear_3_12341)"/>
<path style="mix-blend-mode:multiply" opacity="0.3" d="M185.952 118.438C178.042 116.878 68.9925 53.4675 64.0825 50.3275L61.8625 53.6375C61.4225 54.2375 61.1525 54.9375 61.0825 55.6775C60.7725 58.8675 60.8325 69.8675 60.8725 74.7975C60.8925 76.6475 61.6525 78.4175 63.0625 79.6075C63.8425 80.2675 64.5025 80.7175 64.5025 80.7175C65.0025 73.0375 68.0425 59.0775 80.7725 66.4875C80.9125 66.5675 81.0525 66.6575 81.2025 66.7375C87.9225 70.8875 93.2525 80.2075 93.6325 88.1775C93.6325 88.1775 93.3725 95.5475 92.8525 97.2675L148.622 129.538V119.988C148.992 112.088 154.722 109.018 161.612 112.998C161.752 113.078 161.902 113.168 162.042 113.258C168.752 117.388 176.402 124.898 176.532 142.118C183.052 144.798 190.402 144.948 197.782 143.548C197.642 140.538 189.692 119.158 185.942 118.428L185.952 118.438Z" fill="url(#paint14_linear_3_12341)"/>
<path d="M199.902 54.2775C192.492 46.8375 185.953 40.6375 179.043 34.7675C178.923 34.6675 178.762 34.6675 178.652 34.7675C178.552 34.8575 178.412 34.9975 178.242 35.1575C184.182 40.2875 195.953 51.7475 198.453 55.1175L172.273 40.0875C166.143 44.6875 155.773 51.3075 141.353 56.5275C141.163 56.5975 141.073 56.8175 141.173 56.9975L155.113 82.5675C155.993 84.1775 157.852 84.7275 159.622 84.2475C165.972 82.5275 181.543 77.1275 196.603 63.7475C198.923 61.6875 202.353 56.7175 199.913 54.2675L199.902 54.2775Z" fill="#101616"/>
<g style="mix-blend-mode:multiply" opacity="0.4">
<path d="M148.452 84.0075L147.792 84.1875C147.792 84.1875 149.142 89.2075 148.732 91.5875C148.342 93.8375 145.892 112.227 145.452 115.537L109.522 94.8375V71.5675L113.722 63.1775L113.112 62.8675L108.882 71.3275L108.852 95.2375L145.562 116.387L146.002 116.647L146.072 116.137C146.102 115.917 148.992 94.1575 149.412 91.6975C149.852 89.1675 148.522 84.2075 148.462 83.9975L148.452 84.0075Z" fill="#1A4BBB"/>
</g>
<path d="M241.602 100.797C241.602 100.627 241.592 100.457 241.582 100.317C241.562 99.9575 241.442 99.5975 241.202 99.3275C240.832 98.8975 240.402 98.6275 240.392 98.5175C240.392 98.4575 240.382 98.4075 240.372 98.3575C219.052 129.477 179.112 129.147 179.112 129.147C179.112 129.167 181.082 130.347 186.142 130.517C210.192 131.337 237.682 110.787 241.592 100.807L241.602 100.797Z" fill="url(#paint15_linear_3_12341)"/>
<g opacity="0.5">
<path d="M182.132 55.1275C178.612 56.2775 175.212 59.7575 174.542 62.8975C173.882 66.0375 176.202 67.6475 179.722 66.5075C183.242 65.3575 186.642 61.8775 187.312 58.7375C187.972 55.5975 185.652 53.9875 182.132 55.1275ZM182.042 56.1175C182.262 56.0475 182.452 56.0175 182.662 55.9675L180.992 60.8475L177.062 59.7275C178.322 58.1175 180.162 56.7275 182.042 56.1175ZM186.492 59.2175C185.922 61.9175 182.992 64.9175 179.962 65.8975C176.932 66.8875 174.932 65.4875 175.512 62.7975C175.682 61.9875 176.082 61.1675 176.612 60.3675L181.462 61.7575L183.482 55.8375C185.662 55.6675 186.962 56.9875 186.492 59.2175Z" fill="#D3D3D3"/>
<path d="M198.643 59.1775C198.693 57.9675 200.053 57.6275 199.583 56.5675C199.473 56.3275 197.503 54.9475 197.323 55.0275C181.153 60.2075 164.083 70.6975 153.833 80.4975C156.123 86.0875 158.583 82.2075 160.953 83.0675C161.053 83.0375 183.472 75.2075 198.652 59.1775H198.643Z" fill="#D3D3D3"/>
<path d="M192.503 56.7775C191.233 61.4975 180.573 66.8675 172.573 66.5475C172.573 66.5475 175.743 62.3175 181.513 59.3975C188.303 55.9675 192.503 56.7775 192.503 56.7775Z" fill="#EAEAEA"/>
</g>
<path opacity="0.7" d="M178.652 34.7775C177.002 36.3875 164.283 48.2375 141.353 56.5375C141.163 56.6075 141.073 56.8275 141.173 57.0075L155.113 82.5775C155.993 84.1875 157.852 84.7375 159.622 84.2575C165.972 82.5375 181.543 77.1375 196.603 63.7575C198.923 61.6975 202.353 56.7275 199.913 54.2775C192.503 46.8375 185.963 40.6375 179.053 34.7675C178.933 34.6675 178.773 34.6675 178.663 34.7675L178.652 34.7775Z" fill="#334547"/>
<path d="M148.812 84.4075L72.6925 40.7075C72.6925 40.7075 79.4025 30.7175 82.8825 27.6475C83.9225 26.7275 84.5425 26.5875 85.7425 27.2775C96.5625 33.4875 128.282 51.8175 133.182 54.6475C134.622 55.4775 135.802 56.6675 136.622 58.1175C140.252 64.5675 148.063 81.4875 148.803 84.4075H148.812Z" fill="#252F30"/>
<path d="M146.962 78.5975C146.152 76.7375 145.312 74.8875 144.462 73.0575C142.762 69.3775 141.002 65.7275 139.162 62.1075L137.752 59.4075C137.262 58.5375 136.822 57.5975 136.152 56.7575C135.502 55.9275 134.722 55.2075 133.842 54.6375C132.952 54.0875 132.082 53.6175 131.202 53.0975L120.662 47.0475L120.162 46.7975L84.6425 26.3075C82.8125 25.2475 73.6825 38.7475 72.4325 40.5175L72.4125 40.5475C72.3025 40.7375 72.3625 40.9875 72.5625 41.1075H72.5725L112.792 64.3075L148.602 84.7675H148.622C148.722 84.8375 148.832 84.8475 148.952 84.8175C149.172 84.7475 149.292 84.5175 149.222 84.2975C148.592 82.2775 147.762 80.4675 146.962 78.5975ZM113.292 63.4375L73.4225 40.6275C74.4925 39.2275 83.1225 26.0575 84.8525 27.0975L119.862 47.3275L120.342 47.6175L130.852 53.7075C131.712 54.2175 132.632 54.7175 133.452 55.2375C134.262 55.7675 134.992 56.4375 135.582 57.2075C136.182 57.9575 136.602 58.8775 137.102 59.7675L138.492 62.4575C140.312 66.0675 142.052 69.7175 143.732 73.3975C144.572 75.2375 145.402 77.0775 146.202 78.9375C146.842 80.4375 147.482 81.9675 148.012 83.4775L113.282 63.4575L113.292 63.4375Z" fill="#151B1C"/>
<path style="mix-blend-mode:screen" opacity="0.6" d="M202.682 59.4775C202.682 59.4775 191.882 76.7675 161.372 86.4775C163.132 88.0575 189.082 105.908 198.782 108.828C198.782 108.828 218.542 103.568 228.612 90.1775C223.772 81.0475 205.052 61.0975 202.692 59.4675L202.682 59.4775Z" fill="url(#paint16_linear_3_12341)"/>
<path d="M200.423 54.5575C200.093 54.1075 199.733 53.7875 199.393 53.4275C198.703 52.7375 198.013 52.0575 197.353 51.3875C192.003 46.0675 187.403 41.7675 184.113 38.8275C182.463 37.3775 181.153 36.2275 180.273 35.4475C179.823 35.0675 179.483 34.7675 179.253 34.5675C179.083 34.3975 178.782 34.3775 178.652 34.4475C178.502 34.5075 178.462 34.5675 178.462 34.5675C178.462 34.5675 176.692 36.3275 173.212 39.0175C169.742 41.6875 164.573 45.2875 157.913 48.8075C154.593 50.5775 150.922 52.3575 146.932 53.9875C145.942 54.4175 144.933 54.8175 143.893 55.2075C143.373 55.4075 142.853 55.5975 142.333 55.7975L141.543 56.0975L141.343 56.1775C141.283 56.2075 141.223 56.2075 141.063 56.3175C140.833 56.4875 140.733 56.8175 140.843 57.0875C141.943 59.0875 143.053 61.1375 144.193 63.2175C146.463 67.3575 148.803 71.6275 151.173 75.9675C152.363 78.1375 153.563 80.3275 154.763 82.5275C155.323 83.7375 156.643 84.5875 157.973 84.6675C158.633 84.7275 159.322 84.6275 159.932 84.4375C160.532 84.2675 161.142 84.0975 161.742 83.8975C171.392 80.8775 180.393 76.1075 188.143 70.7075C189.093 70.0075 190.043 69.3175 190.983 68.6375C191.893 67.9175 192.803 67.2075 193.693 66.5075C195.393 65.0175 197.243 63.7175 198.573 61.9375C199.243 61.0775 199.833 60.1575 200.283 59.1775C200.722 58.2075 201.042 57.1475 200.962 56.0675C200.932 55.5275 200.743 54.9975 200.443 54.5475L200.423 54.5575ZM198.203 61.6775C196.933 63.3875 195.102 64.6975 193.402 66.1875C192.512 66.8875 191.622 67.5975 190.712 68.3175C189.782 68.9975 188.843 69.6875 187.893 70.3875C180.213 75.8275 171.173 80.4775 161.583 83.4175C160.983 83.6075 160.383 83.7675 159.773 83.9375C159.183 84.1175 158.603 84.1875 158.013 84.1375C156.833 84.0375 155.763 83.3475 155.253 82.2675C154.063 80.0675 152.862 77.8675 151.682 75.6975C149.322 71.3475 146.992 67.0575 144.742 62.9175C143.622 60.8575 142.533 58.8375 141.453 56.8575L141.742 56.7475L142.533 56.4475C143.063 56.2475 143.583 56.0475 144.103 55.8475C145.143 55.4575 146.162 55.0475 147.152 54.6175C151.162 52.9675 154.842 51.1575 158.182 49.3775C164.862 45.8175 170.053 42.1875 173.533 39.4875C177.023 36.7875 178.823 34.9875 178.823 34.9875C178.843 34.9975 178.793 34.9575 178.863 35.0075C179.093 35.2075 179.433 35.4975 179.883 35.8775C180.773 36.6475 182.073 37.7875 183.723 39.2375C187.013 42.1575 191.613 46.4375 196.973 51.7375C197.643 52.3975 198.323 53.0775 199.023 53.7675C199.363 54.1175 199.743 54.4675 200.003 54.8175C200.253 55.1975 200.423 55.6375 200.453 56.1175C200.563 58.0575 199.442 59.9975 198.182 61.6675L198.203 61.6775Z" fill="#151B1C"/>
<path d="M199.902 54.2775C199.552 53.9275 199.212 53.5875 198.862 53.2375C201.142 64.0475 158.342 85.1175 155.112 82.5775C155.992 84.1875 157.852 84.7375 159.622 84.2575C165.972 82.5375 181.542 77.1375 196.602 63.7575C198.922 61.6975 202.352 56.7275 199.912 54.2775H199.902Z" fill="#151B1C"/>
<path d="M121.083 47.7875L117.363 45.6875L111.583 62.7375L115.273 64.9175L121.083 47.7875Z" fill="#151B1C"/>
<path d="M95.5324 33.0374L93.9025 32.1475L88.1324 49.1875L89.7224 50.1674L95.5324 33.0374Z" fill="#151B1C"/>
<path d="M143.643 72.0575C143.613 71.9975 143.582 71.9375 143.562 71.8875C143.303 71.3575 143.043 70.8375 142.773 70.3175L139.823 79.0375L141.413 80.0175L143.913 72.6375C143.823 72.4475 143.733 72.2475 143.643 72.0575Z" fill="#151B1C"/>
<g style="mix-blend-mode:multiply" opacity="0.4">
<path d="M235.332 112.798C228.262 120.148 217.592 126.188 207.542 130.298C207.372 130.368 207.262 130.528 207.262 130.718L207.242 138.158C207.242 138.448 207.502 138.678 207.782 138.618C212.102 137.698 232.242 126.297 235.852 121.147C236.042 120.877 236.122 120.548 236.122 120.218V113.108C236.122 112.688 235.622 112.488 235.342 112.788L235.332 112.798Z" fill="#436761"/>
</g>
<path d="M207.782 137.027C207.502 137.087 207.252 136.858 207.252 136.578V138.167C207.252 138.457 207.502 138.688 207.782 138.628C212.102 137.708 232.242 126.307 235.852 121.157C236.042 120.887 236.122 120.557 236.122 120.227V118.627C236.122 118.957 236.042 119.287 235.852 119.557C232.242 124.707 212.102 136.117 207.782 137.027Z" fill="url(#paint17_linear_3_12341)"/>
<path d="M141.402 85.4675L144.832 85.6475C146.432 85.7275 148.022 85.4175 149.472 84.7275C148.822 83.1175 148.202 81.5175 147.512 79.9275L143.372 81.7875L141.412 85.4775L141.402 85.4675Z" fill="#151B1C"/>
<path d="M143.453 80.4475C142.483 80.3875 135.253 82.7275 135.343 83.5775C135.513 85.2075 138.063 87.3475 139.603 87.6675C141.073 87.9675 147.233 86.0075 147.263 85.4375C147.323 84.3475 145.303 80.5575 143.443 80.4475H143.453Z" fill="url(#paint18_linear_3_12341)"/>
<g style="mix-blend-mode:multiply" opacity="0.4">
<path d="M116.422 79.2874L114.622 78.2475C114.002 77.8875 113.502 77.0975 113.502 76.4875V74.2175C113.502 73.5975 114.002 73.3875 114.622 73.7475L116.422 74.7874C117.042 75.1474 117.542 75.9375 117.542 76.5475V78.8174C117.542 79.4374 117.042 79.6474 116.422 79.2874Z" fill="#1A4BBB"/>
</g>
<path d="M117.852 78.3475L113.192 75.6574C112.702 75.3774 112.302 74.7475 112.302 74.2575C112.302 73.7675 112.702 73.5975 113.192 73.8875L117.852 76.5775C118.342 76.8575 118.742 77.4875 118.742 77.9775C118.742 78.4675 118.342 78.6375 117.852 78.3475Z" fill="#D1E3E5"/>
<path d="M236.062 86.2175C236.062 86.2175 234.042 91.1375 231.402 93.8975C230.892 94.4375 230.752 95.2375 231.112 95.8875L233.572 100.037C234.142 101.097 235.632 101.277 236.392 100.347C237.432 99.0875 238.212 97.6575 238.762 96.1075C239.962 92.6775 236.362 86.1775 236.062 86.2075V86.2175Z" fill="#DAF4F7"/>
<path d="M199.132 114.378C198.822 113.518 197.932 113.038 197.032 113.198C189.282 114.568 183.202 115.538 181.402 115.278C181.082 115.228 180.742 115.378 180.642 115.688C179.982 117.708 181.942 121.988 183.172 123.068C184.332 124.088 192.172 123.928 199.472 122.228C200.582 121.968 201.232 120.818 200.832 119.748C200.402 118.608 199.572 115.538 199.152 114.378H199.132Z" fill="#DAF4F7"/>
<path d="M184.272 115.347C182.962 115.277 181.922 115.357 181.392 115.287C181.072 115.237 180.732 115.387 180.632 115.697C179.972 117.717 181.932 121.998 183.162 123.078C183.512 123.388 184.552 123.577 185.952 123.657C185.092 121.017 184.522 118.127 184.282 115.347H184.272Z" fill="#D88C30"/>
<path d="M65.3225 41.0374C63.6725 40.2874 61.6525 49.1975 62.2125 51.9675C62.2925 52.3575 62.5525 52.6674 62.9125 52.8474C64.1125 53.4474 66.9025 54.4675 67.6525 53.3075C68.9825 51.2575 69.2725 47.7375 69.5325 45.4875C69.5925 44.9375 69.4025 44.3975 68.9925 44.0275C67.7925 42.9375 65.3125 41.0475 65.3125 41.0475L65.3225 41.0374Z" fill="#A00000"/>

<defs>
<linearGradient id="paint0_linear_3_12341" x1="201.782" y1="44.1174" x2="197.582" y2="55.6974" gradientUnits="userSpaceOnUse">
<stop stop-color="#1A4BBB"/>
<stop offset="1" stop-color="#1A4BBB"/>
</linearGradient>
<linearGradient id="paint1_linear_3_12341" x1="71.4425" y1="82.2375" x2="88.0624" y2="82.2375" gradientUnits="userSpaceOnUse">
<stop stop-color="#323232"/>
<stop offset="0.63" stop-color="#201F1D"/>
<stop offset="1" stop-color="#12100C"/>
</linearGradient>
<linearGradient id="paint2_linear_3_12341" x1="84.0889" y1="80.1205" x2="82.9338" y2="86.6329" gradientUnits="userSpaceOnUse">
<stop stop-color="#B9B9B9"/>
<stop offset="1" stop-color="#8D8D8D"/>
</linearGradient>
<linearGradient id="paint3_linear_3_12341" x1="78.9505" y1="80.3655" x2="84.6953" y2="81.0028" gradientUnits="userSpaceOnUse">
<stop stop-color="#9D9D9D"/>
<stop offset="1" stop-color="#8D8D8D"/>
</linearGradient>
<linearGradient id="paint4_linear_3_12341" x1="82.3096" y1="91.4433" x2="74.2126" y2="65.8446" gradientUnits="userSpaceOnUse">
<stop stop-color="#D3D3D3"/>
<stop offset="0.55" stop-color="#B9B9B9"/>
<stop offset="1" stop-color="#8D8D8D"/>
</linearGradient>
<linearGradient id="paint5_linear_3_12341" x1="73.8646" y1="89.6614" x2="84.5544" y2="77.8279" gradientUnits="userSpaceOnUse">
<stop stop-color="#9D9D9D"/>
<stop offset="1" stop-color="#6B6B6B"/>
</linearGradient>
<linearGradient id="paint6_linear_3_12341" x1="123.152" y1="105.367" x2="119.352" y2="111.947" gradientUnits="userSpaceOnUse">
<stop stop-color="#1A4BBB"/>
<stop offset="1" stop-color="#4698DE"/>
</linearGradient>
<linearGradient id="paint7_linear_3_12341" x1="154.052" y1="130.037" x2="170.672" y2="130.037" gradientUnits="userSpaceOnUse">
<stop stop-color="#323232"/>
<stop offset="0.63" stop-color="#201F1D"/>
<stop offset="1" stop-color="#12100C"/>
</linearGradient>
<linearGradient id="paint8_linear_3_12341" x1="166.703" y1="127.911" x2="165.547" y2="134.433" gradientUnits="userSpaceOnUse">
<stop stop-color="#B9B9B9"/>
<stop offset="1" stop-color="#8D8D8D"/>
</linearGradient>
<linearGradient id="paint9_linear_3_12341" x1="161.564" y1="128.165" x2="167.309" y2="128.803" gradientUnits="userSpaceOnUse">
<stop stop-color="#9D9D9D"/>
<stop offset="1" stop-color="#8D8D8D"/>
</linearGradient>
<linearGradient id="paint10_linear_3_12341" x1="164.924" y1="139.233" x2="156.827" y2="113.635" gradientUnits="userSpaceOnUse">
<stop stop-color="#D3D3D3"/>
<stop offset="0.55" stop-color="#B9B9B9"/>
<stop offset="1" stop-color="#8D8D8D"/>
</linearGradient>
<linearGradient id="paint11_linear_3_12341" x1="156.478" y1="137.461" x2="167.168" y2="125.628" gradientUnits="userSpaceOnUse">
<stop stop-color="#9D9D9D"/>
<stop offset="1" stop-color="#6B6B6B"/>
</linearGradient>
<linearGradient id="paint12_linear_3_12341" x1="123.012" y1="116.218" x2="182.863" y2="41.8475" gradientUnits="userSpaceOnUse">
<stop stop-color="#1A3C89"/>
<stop offset="0.34" stop-color="#1A4BBB"/>
<stop offset="1" stop-color="#1A4BBB"/>
</linearGradient>
<linearGradient id="paint13_linear_3_12341" x1="185.732" y1="28.2875" x2="83.3025" y2="123.607" gradientUnits="userSpaceOnUse">
<stop stop-color="#4698DE"/>
<stop offset="1" stop-color="#1A4BBB"/>
</linearGradient>
<linearGradient id="paint14_linear_3_12341" x1="197.132" y1="117.698" x2="133.972" y2="100.138" gradientUnits="userSpaceOnUse">
<stop offset="0.41" stop-color="white"/>
<stop offset="0.59" stop-color="#4698DE"/>
<stop offset="1" stop-color="#4698DE"/>
</linearGradient>
<linearGradient id="paint15_linear_3_12341" x1="180.942" y1="132.367" x2="242.992" y2="103.747" gradientUnits="userSpaceOnUse">
<stop stop-color="#1A4BBB"/>
<stop offset="1" stop-color="#4698DE"/>
</linearGradient>
<linearGradient id="paint16_linear_3_12341" x1="184.802" y1="72.5775" x2="206.972" y2="106.638" gradientUnits="userSpaceOnUse">
<stop stop-color="#4698DE"/>
<stop offset="1"/>
</linearGradient>
<linearGradient id="paint17_linear_3_12341" x1="207.142" y1="135.507" x2="250.942" y2="115.548" gradientUnits="userSpaceOnUse">
<stop stop-color="#1A4BBB"/>
<stop offset="1" stop-color="#4698DE"/>
</linearGradient>
<linearGradient id="paint18_linear_3_12341" x1="145.093" y1="80.9875" x2="138.633" y2="86.9275" gradientUnits="userSpaceOnUse">
<stop stop-color="#4698DE"/>
<stop offset="1" stop-color="#1A4BBB"/>
</linearGradient>
</defs>
</svg>
